{
  "appId": "pl.reservation-platform-online.app",
  "appName": "reservation-platform-online",
  "bundledWebRuntime": false,
  "npmClient": "npm",
  "webDir": "www",
  "plugins": {
    "SplashScreen": {
      "launchShowDuration": 0
    },
    "PushNotifications": {
      "presentationOptions": [
        "badge",
        "sound",
        "alert"
      ]
    },
    "Keyboard": {
      "resize": "body",
      "style": "dark"
    }
  },
  "cordova": {
    "preferences": {
      "ScrollEnabled": "false",
      "android-minSdkVersion": "19",
      "BackupWebStorage": "none",
      "SplashMaintainAspectRatio": "true",
      "FadeSplashScreenDuration": "300",
      "SplashShowOnlyFirstTime": "false",
      "SplashScreen": "screen",
      "SplashScreenDelay": "3000"
    }
  }
}
