{
  "/prod/*": {
    "target": "https://reservation-platform-online/",
    "secure": false,
    "logLevel": "debug",
    "changeOrigin": true,
    "pathRewrite": {
      "^/prod": ""
    }
  },
  "/local/*": {
    "target": "https://reservation-platform-online/",
    "secure": false,
    "logLevel": "debug",
    "changeOrigin": true,
    "pathRewrite": {
      "^/local": ""
    }
  },
  "/external/*": {
    "target": "http://192.168.0.15/",
    "secure": false,
    "logLevel": "debug",
    "changeOrigin": true,
    "pathRewrite": {
      "^/external": ""
    }
  },
  "/dev/*": {
    "target": "https://reservation-platform-online/",
    "secure": false,
    "logLevel": "debug",
    "changeOrigin": true,
    "pathRewrite": {
      "^/dev": ""
    }
  }
}

