<svg class='ionicon' viewBox='0 0 512 512' xmlns='http://www.w3.org/2000/svg'><title>Chevron Up</title>
    <path d='M112 328l144-144 144 144' fill='none' stroke='currentColor' stroke-linecap='round' stroke-linejoin='round'
          stroke-width='48'/>
</svg>
