<svg class='ionicon' viewBox='0 0 512 512' xmlns='http://www.w3.org/2000/svg'><title>Checkmark Done Circle</title>
    <path d='M448 256c0-106-86-192-192-192S64 150 64 256s86 192 192 192 192-86 192-192z' fill='none'
          stroke='currentColor' stroke-miterlimit='10' stroke-width='32'/>
    <path d='M368 192L256.13 320l-47.95-48M191.95 320L144 272M305.71 192l-51.55 59' fill='none' stroke='currentColor'
          stroke-linecap='round' stroke-linejoin='round' stroke-width='32'/>
</svg>
