<svg class='ionicon' viewBox='0 0 512 512' xmlns='http://www.w3.org/2000/svg'><title>Time</title>
    <path d='M256 64C150 64 64 150 64 256s86 192 192 192 192-86 192-192S362 64 256 64z' fill='none'
          stroke='currentColor' stroke-miterlimit='10' stroke-width='32'/>
    <path d='M256 128v144h96' fill='none' stroke='currentColor' stroke-linecap='round' stroke-linejoin='round'
          stroke-width='32'/>
</svg>
