<svg class='ionicon' viewBox='0 0 512 512' xmlns='http://www.w3.org/2000/svg'><title>Refresh</title>
    <path d='M320 146s24.36-12-64-12a160 160 0 10160 160' fill='none' stroke='currentColor' stroke-linecap='round'
          stroke-miterlimit='10' stroke-width='32'/>
    <path d='M256 58l80 80-80 80' fill='none' stroke='currentColor' stroke-linecap='round' stroke-linejoin='round'
          stroke-width='32'/>
</svg>
